{
	"name": "{{PROJECT_NAME}}",
	"projectDescription": "Test project created by xpresso platform",
	"owner": {
		"uid": "{{UID}}"
	},
	"developers": ["{{UID}}"],
	"environments": ["DEV"],
	"bigdata_environments":["DEV"],
	"persistent_volume_size": 6,
	"components": [
		{
			"type": "service",
			"flavor": "python",
			"name": "{{SVC_COMPONENT_NAME_1}}",
			"description": "Relevant description",
			"base_image": "Docker Image Name"
		},
		{
			"type": "job",
			"flavor": "python",
			"name": "{{JOB_COMPONENT_NAME_1}}",
			"description": "Relevant description"
		},
		{
			"type": "database",
			"flavor": "sql",
			"name": "{{DB_COMPONENT_NAME_1}}",
			"description": "Relevant description",
			"base_image": "Docker Image Name"
		},
		{
			"type": "inference_service",
			"flavor": "python",
			"name": "{{INFERENCE_SVC_COMPONENT_NAME_1}}",
			"description": "Relevant description",
			"base_image": "Docker Image Name"
		},
		{
			"type": "inference_service",
			"flavor": "python",
			"name": "{{INFERENCE_SVC_COMPONENT_NAME_2}}",
			"description": "Relevant description",
			"base_image": "Docker Image Name"
		},
		{
			"type": "pipeline_job",
			"flavor": "python",
			"name": "{{PIPELINE_JOB_COMPONENT_NAME_1}}",
			"description": "Relevant description",
			"base_image": "Docker Image Name"
		},
		{
			"type":"job",
			"flavor":"pyspark",
			"name":"{{BD_COMPONENT_NAME_1}}",
			"description": "Relevant description",
			"base_image": "Docker Image Name"
		},
		{
			"type":"job",
			"flavor":"pyspark",
			"name":"{{BD_COMPONENT_NAME_2}}",
			"description": "Relevant description",
			"base_image": "Docker Image Name"
		},
		{
			"type":"library",
			"flavor":"python",
			"name":"{{LIBRARY_COMPONENT_NAME_1}}",
			"description": "Relevant description",
			"base_image": "Docker Image Name"
		}
	],
	"pipelines": [
		{
			"name": "{{KUBEFLOW_PIPELINE_NAME_1}}",
			"description": "Relevant description",
			"components": ["{{JOB_COMPONENT_NAME_1}}", "{{PIPELINE_JOB_COMPONENT_NAME_1}}"],
			"after_dependencies": {"{{JOB_COMPONENT_NAME_1}}": ["{{PIPELINE_JOB_COMPONENT_NAME_1}}"]}
		},
		{
			"name":"{{BD_PIPELINE_NAME_1}}",
			"description": "Relevant description",
			"components":[
				"{{BD_COMPONENT_NAME_1}}",
				"{{BD_COMPONENT_NAME_2}}"
			]
		}
	],
	"service_mesh": [
		{
			"name" : "{{SERVICE_MESH_NAME}}",
			"components" : ["{{SVC_COMPONENT_NAME_1}}", "{{INFERENCE_SVC_COMPONENT_NAME_1}}"]
		}
	]
}
